Univariate and Bivariate Latent Change Score Modelling • lcsm
…
             model_param = list(gamma_lx1 = 21, 
                                sigma2_lx1 = 1.5,
                                sigma2_ux = 0.2,
                                alpha_j2 = -0.93,
                                sigma2_j2 = 0.1,
                                sigma_j2lx1 = 0.2,
                                phi_x = 0.3),
             sample.nobs = 1000,
             na_pct = 0.3)
#> Parameter estimates for the data simulation are taken from the argument 'model_param'.
#> Warning: The following parameters are specified in the LCSM but no parameter estimates have been entered in 'model_param':
#> -  alpha_g2
#> -  sigma2_g2
#> -  sigma_g2lx1
#> # A tibble: 1,000 × 6
#>       id    x1    x2    x3    x4    x5
#>    <int> <dbl> <dbl> <dbl> <dbl> <dbl>
#>  1     1  21.8  20.4  18.0  15.3  NA  
#>  2     2  22.5  22.7  NA    19.0  NA  
#>  3     3  22.3  21.4  20.5  18.8  18.5
#>  4     4  NA    NA    21.9  25.0  25.9
#>  5     5  18.8  18.4  18.9  18.8  NA  
#>  6     6  20.0  19.1  17.1  15.5  13.8
#>  7     7  20.1  18.6  16.9  NA    NA  
#>  8     8  22.3  23.2  22.6  23.6  25.3
#>  9     9  18.7  NA    19.3  19.5  19.8
#> 10    10  NA    22.3  NA    22.2  22.4
#> # … with 990 more rows
…
