…
# Simulate some data 
sim_uni_lcsm(timepoints = 5, 
             model = list(alpha_constant = TRUE, beta = FALSE, phi = TRUE), 
             model_param = list(gamma_lx1 = 21, 
                                sigma2_lx1 = 1.5,
                                sigma2_ux = 0.2,
                                alpha_j2 = -0.93,
                                sigma2_j2 = 0.1,
                                sigma_j2lx1 = 0.2,
                                phi_x = 0.3),
             sample.nobs = 1000,
             na_pct = 0.3)
#> Parameter estimates for the data simulation are taken from the argument 'model_param'.
#> All parameter estimates for the LCS model have been specified in the argument 'model_param'.
#> # A tibble: 1,000 x 6
#>       id    x1    x2    x3    x4    x5
#>    <int> <dbl> <dbl> <dbl> <dbl> <dbl>
#>  1     1  20.3  19.4  18.2  17.0  NA  
#>  2     2  21.0  20.1  17.8  15.2  14.3
#>  3     3  NA    NA    15.1  13.2  NA  
#>  4     4  21.8  21.0  21.4  20.4  NA  
#>  5     5  18.3  NA    NA    13.3  NA  
#>  6     6  20.5  20.7  19.6  19.2  17.7
#>  7     7  22.7  NA    NA    NA    18.1
#>  8     8  20.4  19.2  NA    16.1  14.7
#>  9     9  NA    23.1  22.8  22.2  21.7
#> 10    10  21.7  20.6  21.0  20.6  NA  
#> # … with 990 more rows
```
…
