Simulate data from bivariate latent change score model parameter estimates — sim_bi_lcsm • lcsm
…
                                 beta_y = -.2,
                                 phi_y = .1),
            coupling = list(delta_lag_xy = TRUE, 
                            xi_lag_yx = TRUE),
            coupling_param =list(sigma_su = .01,
                                 sigma_ly1lx1 = .2,
                                 sigma_g2ly1 = .1,
                                 sigma_j2lx1 = .1,
                                 sigma_j2g2 = .01,
                                 delta_lag_xy = .13,
                                 xi_lag_yx = .4),
            return_lavaan_syntax = FALSE)
#> Parameter estimates for the data simulation are taken from the argument 'model_param'.
#> All parameter estimates for the LCSM have been specified in the argument 'model_param'.
#> # A tibble: 500 × 25
#>       id    x1    x2    x3    x4    x5    x6    x7    x8     x9      x10    x11
#>    <int> <dbl> <dbl> <dbl> <dbl> <dbl> <dbl> <dbl> <dbl>  <dbl>    <dbl>  <dbl>
#>  1     1  21.3  19.6  17.3  15.1  12.1  9.87  7.75  5.58  3.89   1.78     0.185
#>  2     2  19.9  17.2  14.4  12.1  10.3  7.21  4.69  1.84  0.174 -2.44    -3.25 
#>  3     3  20.4  17.4  14.9  12.4  10.4  7.94  5.31  4.10  1.46  -1.14    -1.99 
#>  4     4  20.8  20.7  19.4  18.7  17.1 15.3  14.2  12.8  10.9    9.96     8.43 
#>  5     5  20.2  18.6  16.7  14.1  11.6 10.3   7.23  4.89  3.62   0.458   -0.172
#>  6     6  20.5  19.9  18.4  16.7  14.9 14.0  11.6  11.2   8.13   7.80     6.60 
#>  7     7  20.6  18.6  17.8  16.6  14.9 13.4  NA    10.1   9.78   8.10     6.67 
#>  8     8  23.1  21.7  21.7  19.7  19.8 18.9  18.7  17.3  16.2   15.2     15.2  
#>  9     9  22.0  19.1  18.4  16.7  14.6 13.6  11.4  10.7   8.37   7.29     5.92 
#> 10    10  20.5  18.4  15.5  12.8  10.9  8.23  6.65  3.97 NA     -0.00326 -1.19 
#> # … with 490 more rows, and 13 more variables: x12 <dbl>, y1 <dbl>, y2 <dbl>,
#> #   y3 <dbl>, y4 <dbl>, y5 <dbl>, y6 <dbl>, y7 <dbl>, y8 <dbl>, y9 <dbl>,
#> #   y10 <dbl>, y11 <dbl>, y12 <dbl>
…
