lcsm: An R Package for Latent Change Score Modeling â€¢ lcsm
…
             model_param = list(gamma_lx1 = 21,
                                sigma2_lx1 = 1.5,
                                sigma2_ux = 0.2,
                                alpha_j2 = -0.93,
                                sigma2_j2 = 0.1,
                                sigma_j2lx1 = 0.2,
                                phi_x = 0.3),
             sample.nobs = 1000,
             na_pct = 0.3)
#> Parameter estimates for the data simulation are taken from the argument 'model_param'.
#> Warning: The following parameters are specified in LCS model but no parameter estimates have been entered in 'model_param':
#> -  alpha_g2
#> -  sigma2_g2
#> -  sigma_g2lx1
#> # A tibble: 1,000 x 6
#>       id    x1    x2    x3    x4    x5
#>    <int> <dbl> <dbl> <dbl> <dbl> <dbl>
#>  1     1  NA    21.4  NA    24.3  25.0
#>  2     2  NA    NA    19.9  19.0  NA  
#>  3     3  20.3  NA    NA    NA    19.0
#>  4     4  NA    20.3  NA    18.1  NA  
#>  5     5  19.2  19.1  18.0  16.9  16.7
#>  6     6  22.3  23.5  NA    29.0  NA  
#>  7     7  NA    NA    23.1  23.1  NA  
#>  8     8  21.3  22.5  22.5  23.7  25.0
#>  9     9  NA    22.6  21.6  21.3  19.1
#> 10    10  NA    21.8  21.0  22.5  22.0
#> # â€¦ with 990 more rows
…
