Simulate data to explore the effect of different parameters • lcsm
…
             model_param = list(gamma_lx1 = 21, 
                                sigma2_lx1 = 1.5,
                                sigma2_ux = 0.2,
                                alpha_j2 = -0.93,
                                sigma2_j2 = 0.1,
                                sigma_j2lx1 = 0.2,
                                phi_x = 0.3),
             sample.nobs = 1000,
             na_pct = 0.3)
#> Parameter estimates for the data simulation are taken from the argument 'model_param'.
#> Warning: The following parameters are specified in the LCSM but no parameter estimates have been entered in 'model_param':
#> -  alpha_g2
#> -  sigma2_g2
#> -  sigma_g2lx1
#> # A tibble: 1,000 x 6
#>       id    x1    x2    x3    x4    x5
#>    <int> <dbl> <dbl> <dbl> <dbl> <dbl>
#>  1     1  NA    18.7  NA    NA    8.35
#>  2     2  20.3  23.1  NA    26.6 28.1 
#>  3     3  22.2  23.2  NA    25.2 27.5 
#>  4     4  21.8  NA    NA    21.7 NA   
#>  5     5  19.8  NA    17.4  16.3 15.0 
#>  6     6  21.7  NA    24.7  24.1 24.4 
#>  7     7  22.2  NA    22.2  22.2 NA   
#>  8     8  20.7  20.4  19.2  17.7 NA   
#>  9     9  21.8  21.7  21.3  21.4 20.0 
#> 10    10  20.3  NA    22.6  23.1 NA   
#> # … with 990 more rows
…
