Simulate data from a univariate latent change score model — sim_uni_lcsm • lcsm
…
                                alpha_j2 = -.93,
                                sigma2_j2 = .1,
                                sigma_j2lx1 = .2),
             return_lavaan_syntax = FALSE,
             return_lavaan_syntax_string = FALSE,
             sample.nobs = 1000,
             na_pct = .3)
#> Parameter estimates for the data simulation are taken from the argument 'model_param'.
#> Warning: The following parameters are specified in LCS model but no parameter estimates have been entered in 'model_param':
#> -  alpha_g2
#> -  sigma2_g2
#> -  sigma_g2lx1
#> -  phi_x
#> Warning: lavaan WARNING: some regression coefficients are unspecified and will be set to zero
#> # A tibble: 1,000 x 11
#>       id    x1    x2    x3    x4    x5    x6    x7    x8    x9   x10
#>    <int> <dbl> <dbl> <dbl> <dbl> <dbl> <dbl> <dbl> <dbl> <dbl> <dbl>
#>  1     1  21.6  21.5  20.7  NA    NA    18.2  NA    17.6  17.1  16.5
#>  2     2  20.3  20.4  21.2  NA    22.4  23.5  23.5  23.9  23.6  24.2
#>  3     3  NA    19.5  18.2  19.0  NA    18.9  NA    17.8  18.0  17.5
#>  4     4  NA    NA    20.0  NA    20.3  19.5  19.8  20.4  NA    20.8
#>  5     5  20.2  18.8  NA    NA    NA    15.6  14.2  12.7  NA    11.9
#>  6     6  20.8  NA    20.5  NA    21.1  20.7  NA    19.3  19.4  19.7
#>  7     7  20.9  21.3  21.1  22.2  NA    NA    23.7  23.9  NA    25.2
#>  8     8  18.2  17.4  NA    16.8  15.6  15.4  14.4  13.0  NA    12.9
#>  9     9  19.9  19.8  NA    18.7  NA    18.1  18.1  17.7  NA    17.5
#> 10    10  20.9  20.5  23.6  24.4  NA    NA    29.6  29.6  32.0  33.6
#> # … with 990 more rows
…
