Simulate data from bivariate latent change score model parameter estimates — sim_bi_lcsm • lcsm
…
                                 beta_y = -.2,
                                 phi_y = .1),
            coupling = list(delta_lag_xy = TRUE,
                            xi_lag_yx = TRUE),
            coupling_param =list(sigma_su = .01,
                                 sigma_ly1lx1 = .2,
                                 sigma_g2ly1 = .1,
                                 sigma_j2lx1 = .1,
                                 sigma_j2g2 = .01,
                                 delta_lag_xy = .13,
                                 xi_lag_yx = .4),
            return_lavaan_syntax = FALSE)
#> Parameter estimates for the data simulation are taken from the argument 'model_param'.
#> All parameter estimates for the LCS model have been specified in the argument 'model_param'.
#> # A tibble: 500 x 25
#>       id    x1    x2    x3    x4    x5    x6    x7    x8    x9   x10    x11
#>    <int> <dbl> <dbl> <dbl> <dbl> <dbl> <dbl> <dbl> <dbl> <dbl> <dbl>  <dbl>
#>  1     1  21.7  19.3  19.0  17.3  14.7 13.6  12.3  10.7   8.90  7.89  6.11 
#>  2     2  21.0  19.0  17.2  14.5  12.8 12.9  11.2   8.43  7.39  6.58  5.68 
#>  3     3  21.2  20.0  19.5  18.8  17.9 16.1  15.5  14.0  13.5  13.0  NA    
#>  4     4  21.1  17.6  16.6  13.9  11.3  9.64 NA     4.59  4.49  1.22  0.449
#>  5     5  21.4  18.9  17.2  15.4  13.4 11.3  NA     7.23  7.42  4.86  3.32 
#>  6     6  21.6  20.7  18.8  18.3  16.0 NA    13.5  12.7  NA    10.6  10.5  
#>  7     7  21.6  18.2  18.0  NA    13.8 12.5  10.8   8.74  6.65  5.77  5.03 
#>  8     8  19.8  17.5  16.6  14.3  12.8 10.8   8.70  7.13  6.10  4.77  3.09 
#>  9     9  21.3  19.9  16.8  13.8  12.3 10.7   8.18  6.38  5.75  3.25  0.293
#> 10    10  20.3  18.7  17.5  15.6  14.2 12.5  10.9  10.0   8.30  7.18  5.56 
#> # … with 490 more rows, and 13 more variables: x12 <dbl>, y1 <dbl>, y2 <dbl>,
#> #   y3 <dbl>, y4 <dbl>, y5 <dbl>, y6 <dbl>, y7 <dbl>, y8 <dbl>, y9 <dbl>,
#> #   y10 <dbl>, y11 <dbl>, y12 <dbl>
…
