Simulate data to explore the effect of different parameters • lcsm
…
             model_param = list(gamma_lx1 = 21, 
                                sigma2_lx1 = 1.5,
                                sigma2_ux = 0.2,
                                alpha_j2 = -0.93,
                                sigma2_j2 = 0.1,
                                sigma_j2lx1 = 0.2,
                                phi_x = 0.3),
             sample.nobs = 1000,
             na_pct = 0.3)
#> Parameter estimates for the data simulation are taken from the argument 'model_param'.
#> Warning: The following parameters are specified in the LCSM but no parameter estimates have been entered in 'model_param':
#> -  alpha_g2
#> -  sigma2_g2
#> -  sigma_g2lx1
#> # A tibble: 1,000 × 6
#>       id    x1    x2    x3    x4    x5
#>    <int> <dbl> <dbl> <dbl> <dbl> <dbl>
#>  1     1  NA    21.6  21.5  22.7  NA  
#>  2     2  18.0  17.1  17.5  18.2  17.9
#>  3     3  23.5  22.1  22.1  19.2  NA  
#>  4     4  23.5  NA    NA    25.7  NA  
#>  5     5  17.7  18.4  19.7  NA    21.5
#>  6     6  21.3  20.2  17.5  15.5  14.2
#>  7     7  20.8  21.1  NA    21.8  23.1
#>  8     8  20.9  NA    21.8  NA    NA  
#>  9     9  20.0  18.7  17.9  17.0  15.9
#> 10    10  NA    20.2  NA    16.5  15.0
#> # … with 990 more rows
…
